<svg width="180" height="138" viewBox="0 0 180 138" fill="none" xmlns="http://www.w3.org/2000/svg">
<mask id="mask0" mask-type="alpha" maskUnits="userSpaceOnUse" x="22" y="8" width="135" height="121">
<path d="M156.358 80.0811C155.857 73.3449 154.353 66.6086 154.102 60.1218C153.851 54.3836 156.358 45.4019 154.353 40.1626C149.089 27.688 129.034 40.412 120.01 41.41C101.209 43.6554 115.247 21.7002 108.228 12.2195C99.4545 0.742953 80.4031 16.2114 72.3815 20.9517C59.8476 28.187 48.3165 37.1687 38.0388 47.1483C32.5239 52.3876 21.7448 61.8683 22.2461 70.351C22.9982 84.8215 35.2813 91.3082 46.5618 98.0445C53.0794 102.036 59.0956 106.028 65.8639 109.771C75.3896 115.01 84.9153 126.736 95.9451 127.983C106.473 128.981 109.983 120.249 110.234 111.268C110.484 105.03 107.727 98.5435 115.749 96.0486C121.013 94.5516 127.53 95.7991 132.795 96.5475C142.32 97.795 152.347 104.032 155.606 91.5577C156.358 87.8154 156.609 83.8235 156.358 80.0811Z" fill="#C4C4C4"/>
</mask>
<g mask="url(#mask0)">
<path d="M35.6279 120.862L145.95 120.862C153.597 120.862 159.796 114.668 159.796 107.028L159.796 32.4448C159.796 24.8044 153.597 18.6105 145.95 18.6105L35.6279 18.6105C27.9809 18.6105 21.7818 24.8043 21.7818 32.4448L21.7818 107.028C21.7818 114.668 27.9809 120.862 35.6279 120.862Z" fill="#210D06"/>
<path d="M153.909 11.3638L157.347 5.2936L160.291 9.41096L153.909 11.3638Z" fill="#1C0D07"/>
<path d="M75.5417 15.7871L67.7238 11.0345L71.3973 5.29373L75.5417 7.08185L75.5417 15.7871Z" fill="#1C0D07"/>
<path d="M96.8996 137.002L92.0488 132.132L94.4035 124.673L102.48 132.626L96.8996 137.002Z" fill="#1C0D07"/>
<path d="M180 84.6057L174.184 84.3704L180 82.6529L180 52.8903L176.656 50.7728L172.818 50.7728L175.832 48.8435L180 49.667L180 19.0339C180 17.7398 175.997 15.5753 175.691 14.3283C175.243 12.752 164.576 14.3283 164.576 14.3283C166.68 13.0587 168.914 12.0175 171.24 11.2226C172.111 9.9051 169.969 5.12897 166.154 5.12897L160.243 5.12897L155.016 9.62276L157.37 5.29365L71.4207 5.29365L73.3988 8.35226L73.6813 12.1873L70.7614 7.26998L67.5118 5.17602L13.8462 5.17601C12.0259 5.17601 10.2234 5.53462 8.54202 6.23132C6.86059 6.92804 5.33316 7.94917 4.04712 9.2363C2.76107 10.5234 1.74166 12.0513 1.04722 13.7325C0.352779 15.4136 -0.00308706 17.2151 1.03193e-05 19.0338L7.54662e-06 50.7492L8.87756 53.8549L7.15582e-06 55.2195L4.20628e-06 88.9583L7.06437 91.5698L3.77228e-06 93.9226L1.21355e-06 123.191C1.05472e-06 125.008 0.358155 126.807 1.05399 128.485C1.74982 130.164 2.76971 131.689 4.05545 132.973C5.34117 134.258 6.86757 135.277 8.54745 135.972C10.2274 136.668 12.0279 137.025 13.8462 137.025L28.3752 137.025L34.7331 132.885L35.4396 137.025L91.9545 137.025L95.4867 133.567L95.4867 126.344L99.2072 131.967L96.8524 137.072L166.154 137.072C167.971 137.076 169.771 136.721 171.451 136.028C173.131 135.335 174.657 134.318 175.943 133.036C177.229 131.753 178.249 130.229 178.946 128.552C179.642 126.875 180 125.077 180 123.262L180 84.6057Z" fill="#95522A"/>
<path d="M15.0472 117.615C16.6249 117.451 16.8604 115.686 18.5559 115.615C20.2513 115.545 21.6877 116.58 23.2654 115.968C25.2706 114.897 27.4926 114.294 29.7647 114.204C31.672 114.204 33.5559 114.415 35.4397 114.439C36.7612 114.276 38.0978 114.276 39.4193 114.439C40.3847 114.745 39.9373 114.91 40.2199 115.686C40.6 116.704 41.3476 117.543 42.3157 118.039C45.3533 119.897 48.862 119.403 52.2293 118.909C56.9389 118.227 61.6485 117.286 66.2403 116.745C67.7709 116.58 71.4444 116.345 71.9154 118.603C72.1744 119.897 70.738 120.039 69.7019 119.874C68.6657 119.709 66.3581 118.415 64.9923 119.262C63.6265 120.109 64.7332 121.144 63.391 121.615C62.3841 121.746 61.3681 121.793 60.3534 121.756C59.2046 121.976 58.1285 122.477 57.2215 123.215C56.4662 123.866 55.5604 124.319 54.586 124.532C53.6117 124.746 52.5994 124.714 51.6406 124.438C49.9687 124.015 49.6626 124.062 48.7207 125.521C47.8601 126.971 46.4793 128.039 44.8588 128.509C43.3282 128.767 41.5857 127.473 40.008 127.356C37.9631 127.473 35.9267 127.709 33.9091 128.062C32.661 128.062 29.9766 127.544 29.7647 129.238C29.6234 130.226 31.2717 131.379 30.3298 132.179C29.3879 132.979 26.3267 132.179 25.3377 132.179C23.8541 132.038 22.6297 132.061 21.6171 130.885C21.2746 130.306 20.8033 129.814 20.2397 129.447C19.6762 129.08 19.0355 128.847 18.3675 128.767C16.9899 128.743 15.6125 128.822 14.2466 129.003C12.6924 129.003 11.6328 127.662 10.0786 127.732C8.43342 127.973 6.8053 128.319 5.20422 128.767C3.90908 129.003 2.73168 129.544 1.50719 129.661C0.439141 127.672 -0.119071 125.449 -0.117599 123.191L-0.117598 115.498C0.27382 115.279 0.707635 115.147 1.15451 115.111C1.60138 115.074 2.0509 115.134 2.47267 115.286C4.82746 116.015 8.28899 121.615 11.1854 119.356C11.7976 118.886 12.0802 117.898 12.8102 117.568C13.5402 117.239 14.2466 117.686 15.0472 117.615Z" fill="#98542C"/>
<path d="M180 98.6754L179.294 98.6754C176.428 98.8809 173.637 99.6823 171.099 101.028C166.06 103.499 161.327 102.369 155.911 102.981C154.177 103.433 152.477 104.007 150.824 104.699C147.763 105.498 144.301 104.699 141.146 105.004C134.529 105.64 127.276 108.322 120.471 106.087C117.834 105.781 117.457 104.299 115.549 103.287C111.852 101.287 106.13 103.287 102.033 101.852C97.5844 100.392 92.9139 99.7227 88.2339 99.8753C83.7127 99.8753 79.7331 100.087 75.989 97.8284C70.8791 94.6992 64.2151 94.9345 58.7991 92.3935C63.8576 92.0993 68.9289 92.0993 73.9875 92.3935C77.1388 93.1353 80.3431 93.6308 83.5714 93.8758C85.7378 93.8758 87.6217 93.1699 89.7174 92.9347C91.9813 92.644 94.2655 92.5417 96.5463 92.6288C99.1837 92.7464 102.857 93.8287 105.471 93.1464C108.085 92.4641 107.378 90.7936 109.403 89.9466C112.158 89.2623 114.999 88.9927 117.834 89.1467C120.706 88.9585 123.509 88.5585 126.381 88.3938C129.254 88.2291 131.256 89.1232 133.752 89.1467C136.248 89.1702 136.695 87.7821 139.05 87.5233C142.478 87.2154 145.933 87.6158 149.199 88.6997C151.766 89.5702 153.791 91.57 156.264 92.2759C158.753 92.7996 161.281 93.1222 163.823 93.2405C168.532 93.664 172.912 94.2993 177.48 95.0051L179.835 95.2639L180 98.6754Z" fill="#98542C"/>
<path d="M40.1494 85.2645C38.9956 86.488 34.7569 86.8879 33.085 87.4526C31.4131 88.0173 25.0552 88.5114 23.4304 88.7937C19.4273 89.4995 20.3456 90.3701 16.366 90.5112C12.9281 90.5112 9.72554 91.1465 6.73495 91.4053L0.000244346 89.0525L0.000244889 82.8412L0.895078 82.8412C6.49948 82.8412 27.4806 83.5941 33.1321 83.5941C34.7099 84.2528 38.6894 84.2293 40.1494 85.2645Z" fill="#98542C"/>
<path d="M70.9498 70.7951C76.9074 70.1834 83.0534 70.0657 88.9168 68.9835C93.6625 68.4539 98.4663 68.8779 103.046 70.2304C107.496 71.1715 112.182 70.0893 116.633 71.3362C121.017 72.7468 125.528 73.7317 130.102 74.2772C134.812 74.7242 139.521 75.2654 144.231 75.9947C147.104 76.4653 150.683 74.936 153.485 75.9947C151.601 78.8181 144.207 79.4768 141.075 80.3003C136.606 81.3756 132.014 81.8582 127.418 81.7355C115.455 81.7355 103.587 81.2414 91.5542 81.2414C88.4459 81.2414 85.0785 81.9237 82.135 80.9826L81.8996 80.9826C80.6372 80.9002 79.3707 80.9002 78.1084 80.9826L71.2559 80.018L66.5463 80.6767C64.8969 79.8803 63.1788 79.2346 61.4129 78.7475C58.2786 78.1967 55.1052 77.8977 51.9231 77.8534C49.4506 77.8534 44.8587 78.1357 43.3281 76.1594C47.0251 73.8066 52.7473 73.8066 57.033 72.8185C59.0817 72.3244 60.3768 70.9598 62.2371 70.6304C64.8038 70.1598 68.1241 71.1245 70.9498 70.7951Z" fill="#98542C"/>
<path d="M98.8069 44.4206C95.6986 45.6675 92.237 45.3617 88.9874 46.7733C84.3213 48.75 79.2901 49.7201 74.2229 49.6202C70.3375 49.6202 66.5934 48.8673 62.708 49.1261C59.6819 49.6672 56.7049 50.454 53.8069 51.4789C46.1067 53.2434 38.5008 51.8318 30.9654 50.5378C25.7849 49.6437 20.3454 50.1848 15.1648 49.479C12.5369 48.9333 9.97792 48.0968 7.53531 46.9851C5.06152 46.1572 2.54634 45.4583 -2.22399e-05 44.8911L-2.16228e-05 37.8328L1.38931 37.8328C5.62793 37.3387 9.65462 35.7623 13.9168 35.3388C18.3704 35.17 22.8117 34.7616 27.2213 34.1154C31.2463 33.1697 35.4029 32.9151 39.5133 33.3625C47.6138 34.186 55.6907 36.0682 63.6264 37.6446C69.1601 38.7504 74.1287 40.7267 79.8744 41.3149C84.7253 41.7384 95.4395 40.2091 98.8069 44.4206Z" fill="#98542C"/>
<path d="M180 29.2921L180 45.7615C172.936 45.7615 165.683 44.8674 158.807 45.1968C154.658 45.2955 150.517 44.7882 146.515 43.691C142.041 42.6793 137.402 43.8557 132.975 42.4676C130.62 41.7618 129.725 40.1148 127.818 39.0325C125.911 37.9503 120.283 38.3502 118.516 37.5268C116.044 36.3504 109.945 33.6917 112.37 33.5741C114.796 33.4565 128.03 35.9269 130.691 35.7622C135.283 35.5269 139.403 33.7388 143.807 33.4094C148.21 33.08 152.896 32.8212 157.347 32.6095C160.738 32.4683 163.87 31.0331 167.19 30.6096C170.51 30.1861 174.254 30.2096 177.763 29.692C178.422 29.5273 179.082 29.3862 180 29.2921Z" fill="#98542C"/>
<path d="M73.4694 11.9757L73.6578 12.2581L73.6578 11.9757C77.4255 12.2346 80.5809 12.9874 80.7222 14.9167C80.4867 14.9167 80.2041 14.9167 80.0157 14.9167C78.8854 15.7167 75.3062 15.152 74.0581 15.2932C71.3271 15.7307 68.6287 16.3517 65.9812 17.1519C62.4258 17.8223 58.9115 18.6942 55.4553 19.7634C52.7687 21.074 49.9172 22.0158 46.9781 22.5632C38.3595 23.3867 29.0817 19.0341 20.4631 21.6221C16.2547 23.1125 11.8111 23.8299 7.34698 23.7396C4.88963 23.7005 2.43656 23.5198 3.81949e-05 23.1985L3.8559e-05 19.0341C-0.0055001 15.801 1.12828 12.6691 3.20256 10.1876C7.2057 11.3405 11.3737 13.5992 14.9765 13.2933C19.6861 12.8933 23.9011 10.9405 28.752 11.5287C30.7735 12.1073 32.8359 12.532 34.9215 12.7992C37.0409 12.658 38.6186 11.0346 40.8792 11.0346C43.7285 11.0346 46.7426 11.9287 49.6625 12.0463C53.5008 12.211 57.3627 12.0463 61.1774 12.0463C62.708 12.1404 68.595 11.5993 73.4694 11.9757Z" fill="#98542C"/>
<path d="M180 23.2687C178.705 23.2687 177.504 22.9394 176.633 22.7747C172.653 22.0924 169.144 20.7278 164.859 21.5277C161.791 22.425 158.678 23.1631 155.534 23.7393C151.582 23.869 147.628 23.5214 143.76 22.7041C138.791 21.8571 133.564 21.9747 128.689 20.9866C127.276 20.7042 123.697 20.4925 123.98 18.6338C124.356 15.9046 130.031 16.0222 131.727 15.9281C135.967 15.9213 140.182 15.2789 144.231 14.0223C145.738 13.5047 148.375 13.3636 149.6 12.2578C150.824 11.152 149.435 11.0108 150.165 9.905C150.895 8.79919 153.509 8.30512 155.651 8.21101L154.898 9.62267L156.617 8.18748L158.595 8.18748C162.83 8.22764 167.053 8.637 171.217 9.41092C171.353 9.72658 171.424 10.0669 171.424 10.4108C171.424 10.7548 171.353 11.0951 171.217 11.4108C168.891 12.2057 166.657 13.2468 164.553 14.5164C164.553 14.5164 175.22 12.9401 175.667 14.5164C175.973 15.6928 179.976 17.8574 179.976 19.222L180 23.2687Z" fill="#98542C"/>
<path d="M88.3517 115.827C91.2924 117.408 94.4755 118.489 97.7709 119.027C101.397 119.192 105.236 119.027 108.744 118.839C112.253 118.65 126.923 121.191 128.524 123.144C126.17 123.568 114.867 122.415 112.041 122.697C104.035 123.497 97.2764 123.874 89.1759 124.274C85.5731 124.438 68.1712 122.744 57.2685 127.709C55.787 128.375 54.1835 128.727 52.559 128.744C52.1822 127.356 64.3329 124.227 65.84 123.732C69.5745 122.866 73.4331 122.667 77.2371 123.144C81.0248 123.611 84.8623 123.484 88.6108 122.768C94.0032 121.168 91.2246 118.674 88.3517 115.827Z" fill="#884826"/>
<path d="M171.782 135.802C167.896 135.92 164.929 134.202 161.256 132.861C157.541 131.714 153.724 130.926 149.859 130.508C145.134 129.368 140.233 129.144 135.424 129.85C130.43 130.928 125.302 131.253 120.212 130.814C116.02 130.414 113.619 135.52 109.969 133.873C105.969 131.72 101.712 130.084 97.2999 129.003L95.5338 126.344L95.5338 128.838C94.0392 128.749 92.5393 128.82 91.0597 129.05C87.504 129.591 84.2308 131.402 80.6751 130.838C72.8337 129.614 69.8902 131.967 66.0519 130.791C63.0613 129.967 55.8556 132.861 54.9373 131.308C54.0189 129.755 61.7426 127.003 72.3627 126.791C75.9665 126.052 79.6338 125.666 83.3125 125.638C89.5998 125.215 108.132 125.215 111.9 125.215C118.163 125.215 130.361 126.485 136.696 125.85C146.343 124.873 156.072 125.031 165.683 126.32C169.982 127.204 174.234 128.303 178.422 129.614C176.971 132.366 174.631 134.547 171.782 135.802Z" fill="#934E29"/>
<path d="M96.3581 75.7593C95.2278 75.7593 93.7442 75.3358 93.862 74.3006C94.0504 72.4654 99.1132 71.5949 98.7599 73.8065C98.6381 74.3546 98.3346 74.8456 97.8987 75.2C97.4628 75.5544 96.92 75.7515 96.3581 75.7593Z" fill="#824424"/>
<path d="M95.981 76.1123C96.6984 76.1771 97.419 76.0299 98.0532 75.6888C97.441 76.5593 95.6984 76.6534 94.6388 76.5358C94.003 76.5358 92.4488 76.1123 92.0956 75.4535C91.7424 74.7947 92.7314 73.736 93.1317 73.336C93.7503 72.6822 94.589 72.28 95.4865 72.2067C94.1914 72.536 93.1317 73.736 93.5085 74.8418C93.7204 75.2653 94.3091 75.9946 95.981 76.1123Z" fill="#834728"/>
<path d="M99.2781 72.2067C100.785 72.2067 101.468 72.9125 103.093 73.6419C104.718 74.3712 108.438 74.8182 108.438 75.7594C108.438 76.7005 101.515 76.4652 99.6078 77.1945C97.5488 77.8892 95.3602 78.1143 93.2028 77.8533C88.4932 77.1004 84.7491 77.8533 84.1839 76.5358C83.6188 75.2182 89.0348 73.336 92.2844 73.1478C91.8952 73.3671 91.5908 73.7103 91.4194 74.1226C91.2481 74.5349 91.2197 74.9926 91.3389 75.4229C91.4581 75.8531 91.7179 76.2312 92.077 76.4968C92.4361 76.7625 92.8738 76.9004 93.3205 76.8887C94.9689 77.2005 96.6713 77.054 98.242 76.4652C100.832 75.1947 100.456 73.1478 99.2781 72.2067Z" fill="#824424"/>
<path d="M96.3107 73.783L98.6655 73.1007L96.664 73.8301C96.5716 74.1624 96.5008 74.5003 96.452 74.8418C96.452 75.0535 97.3939 75.4535 97.3939 75.4535L97.2291 75.4535C97.2291 75.4535 96.2872 75.0535 96.3343 74.8418C96.3814 74.63 96.3343 73.9007 96.3343 73.9007L96.1695 74.1359L94.474 74.3477L93.7676 74.3477L96.1224 74.1124L96.1224 73.9242L94.8979 73.5242L96.3107 73.783Z" fill="#70381B"/>
<path d="M97.1586 73.9005C97.4164 73.8659 97.6778 73.8659 97.9356 73.9005C98.1629 73.9192 98.3856 73.9749 98.595 74.0652C98.3522 74.0881 98.1078 74.0881 97.865 74.0652L97.1586 73.9241L97.1586 73.9005Z" fill="#70381B"/>
<path d="M96.6643 73.1478C96.5144 73.0151 96.4216 72.8297 96.4053 72.6302C96.5552 72.763 96.648 72.9484 96.6643 73.1478Z" fill="#70381B"/>
<path d="M94.6389 74.7946C94.5282 74.9589 94.3604 75.0763 94.168 75.124C94.3093 75.0064 94.3093 74.9829 94.6389 74.7946Z" fill="#70381B"/>
<path d="M98.124 72.7713C97.8587 72.9957 97.566 73.1854 97.2528 73.3359C97.5285 73.126 97.8198 72.9373 98.124 72.7713Z" fill="#70381B"/>
<path d="M95.8398 74.7947C95.6551 75.0755 95.4505 75.3429 95.2276 75.5946C95.2512 75.3829 95.8398 74.7947 95.8398 74.7947Z" fill="#70381B"/>
<path d="M99.5604 78.6532C108.721 79.6884 125.157 80.0414 125.157 76.4416C125.157 73.9006 107.826 71.9713 106.013 71.5478C102.525 70.4654 98.8748 70.0035 95.2276 70.1832C89.8352 70.795 86.7033 73.1477 78.5557 73.1477C73.4223 73.1477 69.1366 73.6653 69.1366 75.8299C69.1366 80.1355 80.6515 80.3237 85.2433 79.759C89.9808 79.0289 94.7669 78.6592 99.5604 78.6532ZM88.281 78.865C85.2497 79.0593 82.2068 78.9726 79.1915 78.6062C77.3783 78.4415 72.292 77.5945 72.6923 75.8534C73.0926 74.1124 77.9435 73.7124 80.7928 73.5006C84.4898 73.2889 94.0502 71.1479 94.7567 71.1479C98.4556 70.8725 102.174 71.2711 105.73 72.3243C107.59 72.7478 121.672 74.677 121.248 76.6534C120.824 78.6297 114.867 79.5943 106.013 78.5356C100.104 78.1225 94.1702 78.2327 88.281 78.865Z" fill="#894824"/>
<path d="M99.961 68.254C108.438 68.254 112.206 71.0538 116.444 71.8302C130.267 74.3476 143.76 72.1831 143.76 77.0533C143.76 80.8413 136.413 78.1591 124.262 81.7589C119.035 83.2647 112.842 82.0883 107.049 81.5236C105.589 81.3824 97.4884 79.9002 94.4507 80.5354C91.1861 81.229 87.8838 81.7318 84.5606 82.0412L80.3456 81.453C84.2898 81.3363 88.2226 80.9669 92.1195 80.3472C95.1857 79.9072 98.2956 79.8598 101.374 80.206C101.868 80.206 118.776 81.9 124.05 80.9825C126.547 80.559 137.473 78.7944 137.473 76.5357C137.473 73.3124 129.278 74.183 124.404 73.83C122.661 73.6653 115.385 72.2301 112.959 71.4773C108.738 70.1708 104.373 69.3808 99.961 69.1245C96.052 68.9833 80.1807 71.3596 80.1807 71.3596C80.1807 71.3596 60.3299 72.5125 60.1415 75.077C60.1415 76.4887 62.4963 79.1002 68.8307 80.4884L66.9233 80.7707C63.0143 79.6414 55.2906 77.171 55.2906 74.7006C55.5261 71.5714 62.355 71.642 68.2655 71.4537C86.6564 70.795 92.7788 68.3245 99.961 68.254Z" fill="#824424"/>
<path d="M180 75.03C173.308 73.5838 166.401 73.44 159.655 74.6065C152.637 75.7979 145.43 75.1411 138.744 72.7008C134.529 71.3597 125.392 72.489 119.906 71.3362C110.628 69.4069 112.347 67.6188 101.586 66.6306C91.9309 65.8307 75.5651 69.9951 55.2433 69.9951C43.1868 69.9951 42.1978 72.7714 33.6028 73.8772C28.8932 74.4889 17.8493 73.1478 10.2669 73.5713C6.80966 73.6894 3.368 74.0908 -0.0235443 74.7712L-0.0235442 73.5242C10.2904 70.9832 26.0204 74.0654 33.5793 72.3008C39.8901 70.8656 47.708 68.1834 55.2433 68.1834C74.3407 68.1834 89.6232 64.4896 101.327 65.1719C111.005 65.7366 113.1 68.7011 120.165 69.9951C125.063 70.9362 134.976 70.7009 139.498 72.1361C146.562 74.4889 151.907 73.9007 159.419 72.9596C166.287 72.3978 173.2 72.8657 179.929 74.3477L180 75.03Z" fill="#8C4A28"/>
<path d="M180 99.9458C164.6 97.0283 140.934 106.086 117.857 106.086C103.728 106.086 100.785 102.863 84.325 105.545C72.4097 107.475 66.9466 103.851 58.8226 103.193C54.7253 102.887 41.4678 103.334 28.022 103.969C20.9576 104.322 7.58243 102.346 -0.0235439 101.004L-0.0235437 99.5222C7.2292 101.028 20.4866 103.428 27.2684 103.169C37.5589 102.769 54.7959 101.428 59.0581 101.64C70.9498 102.228 74.4113 105.263 83.4066 103.993C97.3469 102.087 108.697 104.816 118.728 104.628C130.126 104.44 137.708 102.416 151.295 100.463C164.882 98.5106 171.358 97.593 179.906 99.1929L180 99.9458Z" fill="#824424"/>
<path d="M108.438 61.2663C119.576 62.7721 131.845 67.1247 136.931 68.3247C142.113 69.4035 147.441 69.5865 152.684 68.8658C162.104 68.3482 163.964 71.4068 169.992 70.7715C173.316 70.4274 176.66 70.3173 180 70.4422L180 71.2186C176.43 71.1803 172.861 71.3452 169.309 71.7126C161.115 71.7126 161.538 69.3599 152.52 70.4186C147.228 71.3771 141.792 71.1926 136.578 69.8775C131.515 68.5835 114.914 62.4898 108.32 62.3251C103.611 62.1839 90.989 64.1602 90.9184 60.8899C90.8477 57.6195 101.68 57.1254 110.086 56.302C115.154 55.7682 120.278 56.3299 125.11 57.9489C132.174 59.5253 138.014 56.0196 145.903 55.5962C153.791 55.1727 162.104 57.7607 165.283 57.3843C169.187 56.8409 173.117 56.4954 177.057 56.349L179.835 56.349L179.835 57.3843C177.928 57.2196 176.279 57.0784 175.879 57.0784C172.865 57.0784 168.815 58.2313 164.435 58.2077C160.055 58.1842 155.44 56.8431 148.799 56.2549C142.159 55.6667 131.538 60.3017 126.264 59.0783C120.751 57.2297 114.901 56.6035 109.121 57.2431C103.87 57.6666 93.8619 58.2313 94.6389 60.6546C95.2276 61.9722 105.871 60.9134 108.438 61.2663Z" fill="#824424"/>
<path d="M30.7299 78.6767C32.755 78.6767 38.4536 78.9826 40.5494 78.8885C48.4286 78.2758 56.3545 79.0239 63.9795 81.1001L63.2731 81.1001C56.6156 79.9855 49.8609 79.5597 43.1161 79.8296C40.9968 79.9708 19.215 80.559 18.5792 77.7827C17.9434 75.0064 36.8994 76.0652 43.4457 74.1124C46.9562 73.0013 50.5986 72.3604 54.2778 72.2066C51.4228 72.724 48.6237 73.5118 45.9183 74.5594C39.2307 76.9122 30.6121 76.6769 27.4332 76.9122C22.7236 77.3592 23.0297 77.618 22.7236 77.8768C25.3653 78.3665 28.0434 78.634 30.7299 78.6767Z" fill="#824424"/>
<path d="M135.33 65.5952C139.914 66.9367 144.737 67.2579 149.458 66.5363C153.903 65.9936 158.403 66.1205 162.81 66.9128C167.815 67.4836 172.866 67.5309 177.881 67.0539L180.071 67.0539L180.071 67.7362L177.928 67.8539C172.826 68.3314 167.687 68.2683 162.598 67.6656C158.291 66.902 153.895 66.783 149.553 67.3127C144.696 68.0507 139.736 67.7134 135.024 66.3246C120.471 60.7955 104.765 61.219 103.234 59.7838C100.62 57.4311 114.16 56.8899 120.118 58.7251C124.663 60.1368 131.703 62.0425 137.685 60.5603C147.268 58.2075 161.491 59.1251 172.724 60.1838C175.267 60.4426 177.716 60.6779 180.094 60.8661L180.094 61.6425C177.739 61.4543 175.196 61.219 172.63 60.9838C161.491 59.9015 148.281 58.8192 138.885 61.1485C132.692 62.6778 125.11 60.4191 119.176 59.3368C113.807 58.3487 105.683 58.0193 105.871 59.478C105.918 60.4662 121.366 60.325 135.33 65.5952Z" fill="#894824"/>
<path d="M134.647 63.7367C136.13 64.8661 144.301 65.266 149.694 64.772C153.853 64.2108 158.056 64.0532 162.245 64.3014C163.399 64.419 169.309 65.1249 171.429 65.2896C174.281 65.5012 177.143 65.5405 180 65.4072L180 66.0895C176.162 66.3483 171.947 66.3718 169.757 66.3013C163.116 65.6162 156.439 65.3412 149.765 65.4778C144.796 65.9248 136.036 65.6895 134.223 64.3249C134.116 64.2543 134.027 64.1605 133.962 64.0505C133.896 63.9405 133.857 63.8171 133.846 63.6897C133.848 63.6135 133.865 63.5385 133.898 63.4696C133.93 63.4007 133.977 63.3394 134.035 63.2897C134.435 62.9838 135.306 62.9838 136.837 62.9838C137.731 63.0424 138.627 63.0424 139.521 62.9838C140.597 62.8366 141.655 62.5764 142.677 62.2074C143.654 61.8416 144.663 61.5659 145.691 61.384C147.6 61.2033 149.525 61.2825 151.413 61.6192C152.776 61.8426 154.153 61.9762 155.534 62.0192C156.641 62.0192 157.889 62.0192 158.901 62.0192C161.198 61.8549 163.504 61.8549 165.801 62.0192C167.308 62.2074 174.372 63.2662 176.303 63.4073C177.457 63.4073 178.658 63.4073 180 63.4073L180 63.972C178.743 64.0041 177.485 63.9648 176.232 63.8544C171.97 63.4309 167.284 62.6545 165.777 62.4662C163.54 62.2074 156.735 62.4662 155.604 62.4662C154.169 62.4274 152.737 62.2938 151.319 62.0663C149.494 61.7306 147.634 61.6357 145.785 61.7839C144.807 61.9382 143.845 62.1823 142.912 62.5133C141.839 62.904 140.725 63.1724 139.592 63.3132C138.674 63.3599 137.755 63.3599 136.837 63.3132C136.049 63.2281 135.253 63.2758 134.482 63.4544L134.341 63.4544C134.341 63.4544 134.529 63.7367 134.647 63.7367Z" fill="#894824"/>
<path d="M72.0331 11.8345C66.2455 11.199 60.3887 11.8251 54.8667 13.6697C49.6155 14.8931 38.9954 10.2817 32.3549 10.8699C25.7144 11.4581 21.4051 12.7521 16.6956 12.7992C11.986 12.8462 8.28896 11.5757 5.25128 11.6698C4.92161 11.6698 3.62647 11.7875 2.02522 11.9286C2.26069 11.5522 2.49617 11.1993 2.7552 10.8464L4.09743 10.8464C8.03697 10.9939 11.9666 11.3394 15.8714 11.8816C19.0503 12.258 27.3392 9.52881 35.2277 10.0935C43.1163 10.6581 49.0504 14.0932 56.0441 12.4463C60.8624 10.8036 65.982 10.2335 71.0441 10.7758L72.8808 10.964L73.5166 11.9757L72.0331 11.8345Z" fill="#8C4A28"/>
<path d="M90.2828 15.4106C90.2828 18.6574 77.6376 16.6811 72.8573 16.8222C66.4052 16.9869 49.804 23.0806 44.5999 24.3746C39.393 25.6864 33.9656 25.8709 28.6815 24.9158C19.6627 23.7629 20.063 26.2333 11.8683 26.2098C8.50099 26.2098 4.16818 25.2452 -0.117531 25.1746L-0.117531 23.7394C3.60304 24.2335 8.12422 24.9393 11.209 25.2687C17.2373 25.9039 19.0269 22.9159 28.4931 23.3629C33.7429 24.0965 39.0799 23.9214 44.2702 22.8453C49.333 21.716 61.6015 17.3634 72.7396 15.787C75.3299 15.4341 85.9735 16.4928 86.3738 15.1753C87.0803 12.9872 78.9798 12.3049 73.5402 11.8814L73.5402 10.9638C81.4994 11.7402 90.3299 12.4696 90.2828 15.4106Z" fill="#8C4A28"/>
<path d="M78.1789 14.3285C76.6248 15.7637 60.9183 15.3637 46.3657 20.8692C41.6538 22.2588 36.6937 22.5962 31.8367 21.8574C27.5021 21.3396 23.1149 21.4585 18.8147 22.2103C13.7101 22.8138 8.55589 22.8769 3.43797 22.3985L-3.04755e-05 22.2338L-3.04014e-05 21.3868L3.50861 21.528C8.51553 22.0051 13.5586 21.9578 18.5557 21.3868C22.9634 20.605 27.4625 20.4782 31.9074 21.0104C36.6281 21.7238 41.4474 21.4108 46.0361 20.0928C59.9293 14.9167 75.4709 15.0579 75.4709 14.0697C75.6593 12.6345 67.5353 12.9639 62.1899 13.9285C56.2559 15.0108 48.6734 17.2695 42.4568 15.7402C33.0376 13.3874 19.8744 14.4932 8.73624 15.5755C5.79276 15.8578 2.94347 16.1166 0.235459 16.3284C0.235459 16.046 0.353188 15.7872 0.423829 15.5284L8.61851 14.7991C19.8508 13.7168 34.0973 12.7992 43.6577 15.152C49.5683 16.6813 56.6326 14.7285 61.3422 13.3168C67.2292 11.5052 80.7927 11.9757 78.1789 14.3285Z" fill="#824424"/>
<path d="M15.4238 16.681C17.7207 16.5167 20.0264 16.5167 22.3233 16.6811C23.4536 16.6811 24.6781 16.6811 25.7142 16.6811C27.1109 16.6411 28.5034 16.5075 29.8821 16.2811C31.7694 15.9415 33.6927 15.8466 35.6043 15.9987C36.6275 16.1348 37.6364 16.3632 38.6184 16.6811C39.6455 17.0585 40.7119 17.3189 41.7974 17.4575C42.6837 17.5045 43.5719 17.5045 44.4583 17.4575C45.9889 17.4575 46.8131 17.4575 47.284 17.7633C47.3412 17.8083 47.3878 17.8654 47.4203 17.9305C47.4529 17.9956 47.4707 18.067 47.4724 18.1398C47.4617 18.2672 47.4222 18.3906 47.357 18.5006C47.2917 18.6106 47.2024 18.7044 47.0956 18.775C45.2589 20.1396 36.5227 20.3749 31.5305 19.9279C24.856 19.8039 18.18 20.0789 11.5384 20.7513C7.6895 20.8526 3.83797 20.7505 -0.000102967 20.4455L-0.000102924 19.9514C3.29195 20.1988 6.59796 20.1988 9.89001 19.9514C12.0093 19.8102 17.8963 19.0809 19.0501 18.9632C23.2393 18.727 27.4415 18.8846 31.6011 19.4338C36.9936 19.9279 45.1883 19.4338 46.6718 18.3986C46.7164 18.3758 46.7548 18.3425 46.7836 18.3015C46.8123 18.2605 46.8305 18.213 46.8366 18.1633C46.0676 17.9698 45.2703 17.9141 44.4818 17.9986C43.5641 18.0453 42.6445 18.0453 41.7267 17.9986C40.5934 17.8577 39.4795 17.5894 38.4065 17.1987C37.4424 16.8582 36.4493 16.6062 35.4394 16.4458C33.6159 16.2882 31.7796 16.3672 29.9763 16.6811C28.5677 16.9213 27.1429 17.055 25.7142 17.081C24.5839 17.081 17.755 16.8222 15.518 17.081C14.0109 17.2692 9.34841 18.0457 5.08624 18.4692C3.4003 18.5748 1.70939 18.5748 0.0234491 18.4692C0.0117228 18.2811 0.0117228 18.0925 0.0234492 17.9045C1.67861 17.9874 3.33689 17.9874 4.99205 17.9045C6.99362 17.8574 13.9167 16.681 15.4238 16.681Z" fill="#894824"/>
<path d="M59.1287 43.9027C59.1287 41.3617 45.5651 39.4325 44.1522 39.009C41.4699 37.9353 38.5827 37.4693 35.6985 37.6444C31.4834 38.209 29.0345 40.5618 22.6294 40.5383C18.6263 40.5383 15.2825 41.0559 15.2825 43.2204C15.2825 47.526 24.3013 47.7378 27.9042 47.1496C31.5905 46.4456 35.3363 46.0989 39.0894 46.1143C46.2715 47.1496 59.1287 47.5025 59.1287 43.9027ZM44.1522 45.9732C39.5226 45.5666 34.8619 45.685 30.259 46.3261C27.9024 46.5283 25.53 46.4414 23.1946 46.0673C21.7817 45.9026 17.7786 45.0556 18.1083 43.3145C18.4379 41.5735 22.2056 41.1735 24.4426 40.9618C28.1224 40.3639 31.7692 39.5786 35.3689 38.609C38.2939 38.3394 41.2419 38.7418 43.9874 39.7854C45.4238 40.2089 56.4442 42.1382 56.1381 44.1145C55.832 46.0908 51.0988 47.0319 44.1522 45.9732Z" fill="#8F4B28"/>
<path d="M58.3989 49.1259C67.8181 45.6203 73.658 48.3024 73.658 44.4203C73.658 39.5501 63.1321 41.7382 52.4649 39.1972C49.074 38.4208 46.154 35.5739 39.5135 35.621C33.8856 35.621 29.0818 38.1855 14.6705 38.7502C10.1022 38.9384 4.68623 38.7501 4.49785 41.997C4.30946 45.2438 13.2577 47.9495 15.0473 48.5612C22.2529 50.914 32.1902 48.5612 35.1572 47.8083C37.512 47.1731 43.8699 48.6553 45.0237 48.7965C49.5685 49.4553 54.2781 50.6317 58.3989 49.1259ZM58.2576 48.3495C54.1368 49.267 40.8793 47.6201 40.5026 47.5731C38.108 47.2447 35.6768 47.2923 33.2969 47.7142C14.4586 51.4081 8.05358 45.0321 8.19486 42.4675C8.33615 39.903 23.9013 38.7502 23.9013 38.7502C29.0176 37.6747 34.1907 36.8892 39.3958 36.3974C42.8865 36.6618 46.3166 37.4551 49.5685 38.7502C52.5122 39.7029 55.5076 40.4884 58.5402 41.1029C62.355 41.55 68.7836 40.5853 68.7835 43.8086C68.7835 46.1614 60.2121 47.926 58.2576 48.3495Z" fill="#824424"/>
<path d="M138.32 96.6755C140.11 99.7812 133.305 101.193 131.915 98.5577C131.138 97.099 132.622 95.5462 134.105 95.0756C134.885 94.8143 135.731 94.831 136.499 95.1227C137.268 95.4144 137.911 95.9631 138.32 96.6755Z" fill="#824424"/>
<path d="M131.986 98.6048L132.834 98.2048L135.188 97.5931L135.542 97.8284C135.542 97.8284 135 96.7932 134.812 96.4873C134.623 96.1814 135.518 95.1227 135.518 95.1227L135.73 95.1227C135.73 95.1227 134.812 96.205 134.953 96.5344C135.094 96.8638 135.824 97.9225 135.824 97.9225L138.603 97.9225L135.283 98.1578L133.893 99.2871L135.141 98.0637L134.906 97.8284L131.986 98.6048Z" fill="#70381B"/>
<path d="M137.166 96.8872C136.895 97.1203 136.584 97.3035 136.248 97.4283C136.534 97.2512 136.803 97.0463 137.049 96.8166C137.307 96.6011 137.592 96.4193 137.896 96.2755C137.701 96.5304 137.452 96.7393 137.166 96.8872Z" fill="#70381B"/>
<path d="M136.201 99.8517C136.107 99.561 136.107 99.2483 136.201 98.9576C136.29 99.249 136.29 99.5603 136.201 99.8517Z" fill="#70381B"/>
<path d="M131.774 97.2402C132.05 97.2152 132.326 97.2903 132.551 97.4519C132.151 97.3107 131.986 97.3578 131.774 97.2402Z" fill="#70381B"/>
<path d="M138.179 98.6047C137.681 98.5154 137.193 98.3816 136.719 98.2048C137.222 98.2676 137.714 98.4023 138.179 98.6047Z" fill="#70381B"/>
<path d="M132.786 95.9695C133.226 96.2163 133.643 96.4996 134.034 96.8165C133.576 96.603 133.154 96.317 132.786 95.9695Z" fill="#70381B"/>
<path d="M43.1397 119.239C49.1208 121.003 56.1617 118.698 60.73 117.027C66.664 114.839 80.2276 115.357 77.6138 118.274C76.0596 120.015 60.3532 119.521 45.8006 126.132C41.2794 128.179 36.3814 127.756 31.2716 127.332C26.9339 126.689 22.5161 126.824 18.226 127.732C14.8822 128.65 8.80688 128.297 2.87282 127.944L0.800606 127.944L0.518028 127.003L2.87282 127.003C7.87694 127.563 12.9314 127.5 17.9199 126.815C22.3107 125.888 26.8308 125.745 31.2716 126.391C36.3814 126.815 41.1146 127.262 45.4238 125.262C59.3642 118.933 74.8116 119.121 74.9529 117.851C75.1412 116.109 67.0172 116.509 61.6483 117.686C55.7143 118.98 48.1554 121.686 41.9387 119.85C32.5196 117.074 19.3563 118.368 8.21819 119.662C5.39244 119.968 2.63733 120.297 -2.98371e-05 120.533L-2.97549e-05 119.592C2.59024 119.356 5.32179 119.027 8.10045 118.721C19.3328 117.498 33.5793 116.392 43.1397 119.239Z" fill="#824424"/>
<path d="M21.7583 120.862C22.865 120.862 24.1131 120.862 25.1492 120.862C26.5492 120.822 27.9434 120.664 29.3172 120.392C31.2023 120.025 33.1341 119.961 35.0393 120.203C36.0714 120.4 37.0811 120.7 38.0534 121.097C39.0718 121.537 40.139 121.852 41.2324 122.039C42.1187 122.086 43.007 122.086 43.8933 122.039C45.4239 122.039 46.2481 122.039 46.6955 122.391C46.7643 122.449 46.8191 122.521 46.8559 122.602C46.8926 122.684 46.9102 122.773 46.9074 122.862C46.8966 123.008 46.8554 123.151 46.7865 123.28C46.7176 123.41 46.6224 123.524 46.5071 123.615C44.6939 125.262 35.9577 125.544 30.9655 125.003C24.6547 124.321 13.1869 125.921 10.9734 125.991C7.35245 126.116 3.7273 126.022 0.117783 125.709C0.117783 125.521 0.117783 125.309 0.117783 125.121C3.17414 125.365 6.2451 125.365 9.30146 125.121C11.3972 124.932 17.3077 124.062 18.4616 123.944C22.6531 123.654 26.8642 123.843 31.0126 124.509C36.4051 125.097 44.5762 124.627 46.0833 123.262C46.1291 123.229 46.1674 123.187 46.1959 123.138C46.2243 123.09 46.2421 123.036 46.2481 122.98C45.4806 122.778 44.6832 122.714 43.8933 122.791C42.9841 122.861 42.0709 122.861 41.1617 122.791C40.0204 122.616 38.9051 122.3 37.8415 121.85C36.9109 121.449 35.9399 121.15 34.9451 120.956C33.0936 120.773 31.2246 120.893 29.4113 121.309C28.0061 121.583 26.5805 121.741 25.1492 121.78C24.0189 121.78 17.19 121.474 14.9529 121.78C13.4459 121.991 8.75986 122.933 4.49769 123.45C3.03785 123.528 1.57434 123.505 0.117783 123.38C0.117783 123.38 0.117783 123.262 0.117783 123.191L0.117783 122.697C1.59191 122.793 3.07066 122.793 4.54479 122.697C6.52281 122.533 13.4694 121.262 14.9765 121.05C17.2268 120.784 19.4966 120.721 21.7583 120.862Z" fill="#824424"/>
<path d="M54.7726 44.397C56.0442 42.9618 46.8369 42.3971 44.7883 41.3619C42.7496 40.0658 40.3755 39.3951 37.9594 39.4326C35.6046 39.6679 34.2859 41.0325 31.9547 40.6796C29.6234 40.3267 27.8574 41.9501 25.5497 42.303C23.242 42.6559 19.592 42.303 19.592 43.5029C20.2749 45.4087 27.9986 45.291 29.8118 45.1263C32.1666 44.8911 34.7804 44.0441 37.1823 44.0441C40.3848 44.0441 43.7051 44.9616 46.9782 45.1263C48.6266 45.1969 53.9013 45.3851 54.7726 44.397ZM47.4021 44.397C43.7621 43.9112 40.0995 43.6128 36.4288 43.5029C34.9453 43.5029 29.3644 44.6087 27.3158 44.6087C26.8448 44.6087 24.3252 44.3734 24.1132 43.7147C23.9013 43.0559 30.2828 40.7972 31.366 41.1501C33.7208 41.8795 38.4304 39.9502 39.4429 40.0443C42.8574 40.3267 45.0002 42.7265 49.6156 43.2206C50.1572 43.2206 52.4649 43.3618 52.3942 44.2558C50.7572 44.6314 49.0651 44.7032 47.4021 44.4676L47.4021 44.397Z" fill="#894824"/>
<path d="M31.0833 43.7152C31.0833 43.7152 31.0377 43.7608 31.0833 43.7152V43.7152Z" fill="#8F4B28"/>
<path d="M38.0769 42.8674C35.7221 42.8674 33.5086 43.738 31.0125 43.7144C29.6468 43.7144 25.5494 44.2791 28.281 42.5145C30.259 41.244 32.9906 42.2087 34.1208 42.0675C36.1931 41.7852 38.2182 40.6558 40.4788 41.2911C41.5384 41.5969 42.3626 42.4204 43.4223 42.7498C44.0103 42.8455 44.5865 43.0032 45.1413 43.2203C45.8241 43.6438 45.4003 43.8791 44.7174 43.9262C42.5039 44.0438 40.4081 42.8674 38.0769 42.8674Z" fill="#8D4C2A"/>
<path d="M37.7944 42.5615C37.0684 42.5854 36.3448 42.6561 35.628 42.7732C35.0628 42.7732 33.9325 43.3144 33.4145 42.9144C33.4145 42.5615 33.8854 42.6556 34.0974 42.6321C35.7222 42.6321 36.876 41.6674 38.4302 41.5969C39.802 41.704 41.1007 42.2577 42.1272 43.1732C41.6562 43.6438 40.6437 42.9615 40.1256 42.8203C39.3666 42.6145 38.5802 42.5272 37.7944 42.5615Z" fill="#834425"/>
<path d="M177.551 22.8926C172.081 21.8446 166.52 21.3403 160.95 21.3868C150.33 22.9161 131.279 23.4102 131.279 18.0929C131.279 14.3285 151.366 11.4581 153.485 10.8464C157.794 9.57586 161.562 8.21125 165.989 8.82297C167.84 9.08743 169.656 9.5529 171.405 10.2111C171.496 10.6179 171.437 11.0437 171.24 11.411C168.885 10.7758 166.86 10.2582 166.531 10.2111C162.197 9.7982 157.826 10.4024 153.768 11.9757C151.625 12.5874 135.306 15.5049 135.777 18.3752C136.248 21.2456 143.195 22.6808 153.462 21.128C160.319 20.5273 167.223 20.7009 174.042 21.6456C176.025 21.8089 178.017 21.8089 180 21.6456L180 23.0573C179.082 23.0808 178.234 22.9867 177.551 22.8926Z" fill="#8F4B28"/>
<path d="M166.954 23.9983C163.422 23.0572 154.05 25.2218 152.331 25.4335C145.597 26.3041 138.438 28.0216 132.386 25.7864C118.257 20.6103 109.78 24.5865 109.78 18.9869C109.78 11.7639 125.369 14.9872 141.334 11.2463C145.667 10.2346 149.529 6.9172 156.9 6.11725L156.099 7.62304C152.479 8.38218 148.921 9.41246 145.455 10.7052C141.105 12.0749 136.678 13.1905 132.198 14.0461C126.523 14.7049 117.033 13.2932 117.033 18.0693C117.033 21.4103 129.702 24.0219 132.598 24.6571C138.721 25.9982 158.312 23.5748 158.878 23.5043C162.423 23.0193 166.024 23.0988 169.545 23.7395C172.997 24.4346 176.489 24.9217 180 25.1983L180 26.4217C175.593 25.9655 171.231 25.1551 166.954 23.9983Z" fill="#8C4A28"/>
<path d="M174.725 19.8575C171.099 19.5281 167.355 18.2812 163.799 18.2812C159.09 18.2812 154.144 19.6222 149.27 19.881C146.915 19.881 139.05 20.2575 137.755 18.7988C135.871 16.6578 149.529 15.8343 152.52 14.2815C155.535 12.3828 159.034 11.3942 162.598 11.4346C164.298 11.7118 165.959 12.1937 167.543 12.8698C166.931 13.1286 166.342 13.3874 165.848 13.6462C164.07 13.1002 162.251 12.6989 160.408 12.4463C155.392 12.8933 152.19 16.4225 145.385 17.1518C144.56 17.1518 141.146 17.3871 141.264 18.6811C143.691 19.2331 146.203 19.3051 148.658 18.8929C154.063 18.1684 159.502 17.7286 164.953 17.5753C167.143 17.5753 175.338 19.2223 178.446 19.2223C178.979 19.2649 179.514 19.2649 180.047 19.2223L180.047 19.9752C178.272 20.0391 176.495 19.9998 174.725 19.8575Z" fill="#824424"/>
<path d="M154.45 16.3518C156.005 15.8812 157.253 14.6578 158.807 14.2107C162.174 13.2461 165.165 14.9166 168.226 15.3401C169.827 15.5518 173.948 14.1401 176.868 15.9988C180.918 18.6339 174.843 17.9516 172.818 17.7869C169.239 17.7869 166.107 16.587 162.457 16.5635C158.807 16.54 156.005 18.281 152.52 18.1163C151.507 18.1163 150.895 17.7163 151.907 17.0811C152.728 16.7528 153.58 16.5084 154.45 16.3518Z" fill="#8F4B28"/>
<path d="M168.25 16.0225C168.579 16.0225 169.262 16.0225 169.262 16.446C168.509 17.0577 166.907 16.446 165.989 16.2578C164.921 16.0875 163.844 15.9775 162.763 15.9284C161.604 15.8945 160.446 16.0292 159.325 16.3284C158.571 16.5401 156.97 17.5518 156.382 16.846C157.907 15.488 159.832 14.6622 161.868 14.4932C164.152 14.6108 165.848 16.2107 168.25 16.0225Z" fill="#824424"/>
<path d="M177.857 130.579C161.876 127.107 145.531 125.59 129.184 126.062C117.622 126.791 117.41 132.461 109.78 127.544C105.188 124.603 92.2135 125.615 84.6076 125.685C73.3752 125.685 52.7944 134.39 35.157 134.767L34.898 133.214C47.5667 133.332 59.1994 127.003 75.3532 125.309C86.303 124.156 117.857 126.062 131.209 124.603C147.294 122.876 163.555 123.855 179.317 127.497C178.941 128.573 178.452 129.606 177.857 130.579Z" fill="#824424"/>
<path d="M177.81 130.626C161.84 127.132 145.501 125.615 129.16 126.109C117.598 126.838 117.386 132.508 109.733 127.591C105.141 124.65 92.1899 125.662 84.5839 125.732C73.3751 125.732 52.7943 134.438 35.1333 134.814L34.8508 133.261C47.5666 133.379 59.1993 127.05 75.3296 125.356C86.2558 124.203 117.857 126.109 131.185 124.65C147.27 122.923 163.532 123.902 179.293 127.544C178.919 128.625 178.421 129.659 177.81 130.626Z" fill="#884826"/>
<path d="M139.286 135.049C143.38 135.202 147.477 134.847 151.484 133.99C158.804 133.438 166.163 133.762 173.407 134.955C172.886 135.282 172.343 135.573 171.782 135.826C165.035 135.192 158.255 134.996 151.484 135.237C148.093 135.473 145.102 136.908 139.192 136.673C129.231 136.202 117.386 135.214 117.339 132.508C117.292 129.026 131.256 129.355 132.998 129.614C134.89 129.959 136.829 129.959 138.721 129.614C139.333 129.45 141.075 128.038 141.782 127.85C146.35 126.25 156.523 129.614 157.889 129.991C161.45 130.773 165.076 131.222 168.721 131.332C169.286 131.332 173.077 131.332 177.033 131.732L176.68 132.155C172.912 131.826 169.262 131.802 168.65 131.802C164.922 131.797 161.203 131.458 157.535 130.791C156.122 130.485 145.761 127.708 142.418 129.167C141.994 129.355 138.885 130.202 138.014 130.438C135.428 130.75 132.811 130.687 130.243 130.249C128.595 130.085 122.567 131.002 122.002 131.943C121.436 132.885 130.078 134.602 139.286 135.049Z" fill="#824424"/>
<path d="M108.438 125.968C107.967 125.144 112.677 126.485 115.055 126.273C117.317 125.747 119.658 125.651 121.955 125.991C122.379 126.579 119.6 126.391 118.446 126.815C117.467 127.363 116.443 127.828 115.385 128.203C112.277 128.814 110.793 126.32 108.438 125.968Z" fill="#834425"/>
<path d="M178.258 129.897C176.444 129.379 174.608 128.838 172.771 128.438C168.438 127.52 164.105 126.956 159.702 126.368C153.179 125.497 146.798 125.262 140.298 124.909C140.298 123.874 159.914 125.591 164.152 125.779C168.196 126.133 172.2 126.85 176.115 127.92C176.821 128.085 177.857 128.273 178.94 128.485C178.741 128.969 178.513 129.44 178.258 129.897Z" fill="#834425"/>
<path d="M37.3704 124.132C35.0085 124.076 32.6509 123.904 30.3061 123.615C29.1814 123.391 28.0383 123.273 26.8916 123.262C25.629 123.319 24.3653 123.176 23.1475 122.838C22.8178 122.462 24.0659 122.532 24.2543 122.485C26.324 122.645 28.4059 122.478 30.4238 121.991C31.3145 121.656 32.2638 121.504 33.2147 121.544C34.1657 121.585 35.0986 121.817 35.9576 122.227C36.9088 122.66 37.9291 122.923 38.9717 123.003C39.7959 123.003 41.3265 122.744 41.9858 123.238C43.2574 124.226 41.4678 124.273 40.5965 124.273C39.5193 124.29 38.4421 124.243 37.3704 124.132Z" fill="#935129"/>
<path d="M68.4067 109.404L68.1948 109.404L68.3832 109.169L68.4067 109.404Z" fill="#8D4C2A"/>
<path d="M151.719 120.697C147.229 120.964 142.732 121.199 138.226 121.403C129.631 121.803 122.567 118.839 114.254 117.615C110.23 117.203 106.175 117.203 102.151 117.615C98.4798 117.646 94.8413 116.926 91.46 115.498C84.3956 113.145 74.9765 114.815 68.6656 110.51L68.4537 109.333L68.6656 109.333C71.4382 109.68 74.2312 109.837 77.0251 109.804C79.7096 110.039 82.5824 110.039 85.1727 110.274C86.9388 110.416 86.6797 111.38 88.2104 112.063C90.524 112.799 92.884 113.38 95.2747 113.804C99.5145 114.809 103.847 115.377 108.203 115.498C115.267 115.733 133.093 119.803 137.214 119.403C149.458 118.227 146.232 114.439 158.407 117.262C164.953 118.744 173.053 121.709 180 120.603L180 123.238C176.367 123.072 172.749 122.671 169.168 122.038C163.437 120.819 157.569 120.368 151.719 120.697Z" fill="#8D4C2A"/>
<path fill-rule="evenodd" clip-rule="evenodd" d="M99.6076 110.345C99.7013 110.331 99.7964 110.331 99.8901 110.345L99.6076 110.345Z" fill="#8D4C2A"/>
<path fill-rule="evenodd" clip-rule="evenodd" d="M180 117.356C178.446 117.215 176.892 116.933 175.455 116.933C171.334 116.933 167.543 116.368 163.54 115.992C159.937 115.662 156.334 114.392 152.826 114.345C149.317 114.298 146.562 115.662 143.407 115.992C141.466 116.151 139.512 116.072 137.59 115.756C136.902 115.557 136.202 115.4 135.495 115.286C134.569 115.239 133.642 115.239 132.716 115.286C129.163 115.274 125.631 114.735 122.237 113.686C118.62 112.617 114.837 112.218 111.075 112.509C109.131 112.734 107.162 112.614 105.259 112.157C103.917 111.78 101.279 110.157 99.9608 110.274L101.138 110.016L103.634 110.157C105.618 110.674 107.689 110.763 109.71 110.416L114.419 110.58C116.693 110.885 118.932 111.405 121.107 112.133C124.137 112.986 127.261 113.461 130.408 113.545C132.26 113.773 134.124 113.883 135.989 113.874C140.042 113.725 144.083 113.348 148.093 112.745C152.516 112.365 156.967 112.444 161.374 112.98C165.589 112.883 169.801 113.278 173.925 114.156C175.523 114.906 177.269 115.292 179.035 115.286C179.387 115.309 179.741 115.309 180.094 115.286L180 117.356Z" fill="#8D4C2A"/>
<path fill-rule="evenodd" clip-rule="evenodd" d="M101.868 109.851L102.857 109.639L103.069 109.828L101.868 109.851Z" fill="#8D4C2A"/>
<path d="M88.2104 110.58C90.8848 110.112 93.5957 109.884 96.3109 109.898C98.7213 110.505 101.083 111.291 103.375 112.251C104.865 112.956 106.453 113.432 108.085 113.663C111.664 114.062 115.502 113.145 119.105 114.251C126.862 116.328 134.886 117.24 142.912 116.956C140.875 117.623 138.799 118.165 136.695 118.58C132.648 118.801 128.594 118.283 124.733 117.051C121.449 115.89 118.044 115.101 114.584 114.698C110.699 114.11 106.978 114.392 103.187 114.015C98.1011 113.325 93.0885 112.175 88.2104 110.58Z" fill="#9A5932"/>
<path d="M180 97.4519C165.871 96.4873 137.331 90.3936 131.892 90.5112C126.452 90.6289 113.477 92.864 113.524 92.7228C100.977 94.6525 88.1903 94.3977 75.73 91.9699C52.4647 87.4997 43.6578 88.2996 29.6703 92.5581C21.146 95.1462 19.2622 93.1698 13.4458 93.8521C10.2198 94.2286 8.10046 95.8049 4.94505 95.9932C3.28375 95.9618 1.62871 95.7806 1.74833e-07 95.452L3.12643e-07 93.8757C0.532135 94.2576 1.1523 94.4988 1.8028 94.577C2.45328 94.6551 3.11298 94.5677 3.72057 94.3227C7.90392 92.8561 12.3441 92.2635 16.7661 92.5816C25.1256 93.0287 33.909 87.8761 42.2214 87.5938C66.5699 86.535 81.0047 92.911 105.424 91.9699C111.429 91.8523 124.922 89.3819 131.185 89.3819C136.695 89.3819 167.684 95.3579 180 96.252L180 97.4519Z" fill="#824424"/>
<path d="M101.044 45.0792C97.9477 46.221 94.9137 47.5247 91.9544 48.9848C84.372 53.1492 75.4709 52.961 67.2527 54.2785C60.3531 55.4078 53.1239 54.8432 46.0596 55.149C54.2778 53.5021 63.2024 52.4669 71.821 51.1258C75.9654 50.4906 81.8759 49.8082 85.0784 46.5849C88.2809 43.3617 82.5588 41.3383 80.1334 40.8912C74.8115 39.9031 69.4897 39.4796 64.0973 38.115C58.7048 36.7504 53.3123 35.7622 48.1789 34.3976C37.9591 31.6448 24.9607 34.7976 20.3453 35.2681C13.8932 35.8798 6.78172 39.1266 0.117662 39.0561L0.117662 35.5034C3.95294 35.1544 7.76052 34.5492 11.5148 33.6917C13.4686 32.9815 15.4767 32.4307 17.5195 32.0448C21.4756 31.6213 25.4552 32.0448 29.529 31.8801C33.6028 31.7154 37.2056 30.3508 41.3029 30.9625C45.2231 31.5506 49.0953 32.4235 52.8885 33.5741C55.0079 33.9644 57.1627 34.1301 59.317 34.0682C61.5765 34.2557 63.8245 34.5619 66.0517 34.9858C76.7189 36.6562 87.7629 36.868 98.4772 39.3149C102.174 40.2089 106.436 42.7029 101.044 45.0792Z" fill="#8F4B28"/>
<path d="M30.7302 55.3843C27.5042 55.2431 24.0662 55.8549 20.7695 55.8549C17.4303 55.6285 14.115 55.1328 10.8558 54.3726C7.11172 53.8079 6.02851 51.8316 2.96729 49.9965C2.01122 49.4719 0.989758 49.0763 -0.0703882 48.8201L-0.0703878 44.5615C1.34248 45.3615 2.73181 46.232 4.02694 46.9143C6.66431 48.3966 8.73651 50.7258 11.3268 52.1139C13.917 53.5021 17.9673 53.2668 20.9579 53.855C24.1738 54.6012 27.4399 55.1123 30.7302 55.3843Z" fill="#8F4B28"/>
<path d="M58.7993 29.1746L59.1055 29.1746C59.0039 29.1879 58.901 29.1879 58.7993 29.1746Z" fill="#8F4B28"/>
<path d="M155.534 39.3855C163.6 40.9737 171.803 41.7618 180.024 41.7383L180.024 42.8206L178.493 42.8206C173.383 42.8206 168.32 42.8206 163.258 42.8206C150.619 42.7381 138.035 41.1586 125.769 38.115C118.705 36.3504 111.335 34.327 103.846 34.7035C100.199 34.9956 96.529 34.8375 92.9201 34.2329C89.5253 33.5664 86.056 33.3606 82.6061 33.6212C78.7258 33.7183 74.8454 33.4346 71.0206 32.7742C68.7088 32.3809 66.4385 31.7745 64.2388 30.9626C62.873 30.492 60.2827 29.4098 59.1289 29.1274C60.6124 29.3627 63.8385 28.8921 65.0159 29.2921C68.0076 30.3785 71.0996 31.1666 74.2466 31.6449C78.1769 31.7872 82.1124 31.6377 86.0206 31.1979C89.9766 31.0096 112.677 33.3154 116.421 34.0212C122.849 35.3858 137.167 38.5385 143.76 37.5503C151.06 36.421 153.179 35.5505 155.11 35.6681C162.386 36.0681 148.305 37.8562 155.534 39.3855Z" fill="#8F4B28"/>
<path d="M180 38.9856L180 40.7267C175.325 40.6914 170.655 40.3929 166.013 39.8326C164.114 39.393 162.186 39.0941 160.243 38.9386C158.76 38.9386 155.864 39.4562 156.876 37.4799C157.889 35.5035 163.399 34.233 165.424 33.9507C170.134 33.2919 175.267 33.9507 180.024 33.5978L180.024 35.1036C173.76 35.5271 164.647 36.0211 164.741 37.4563C164.835 38.8915 173.548 38.9621 180 38.9856Z" fill="#824424"/>
<path d="M98.4538 29.0098C100.809 29.4803 127.724 30.8449 136.719 29.2921C142.771 28.2569 153.415 31.0567 159.419 29.9509C165.024 28.9157 172.182 30.3509 178.258 29.9509C169.262 32.5625 152.708 32.5625 145.691 35.5034C142.559 36.8445 136.743 36.421 128.807 34.5388C126.123 33.9035 95.84 30.3038 93.7678 29.1745C95.5574 29.4333 96.5464 28.6333 98.4538 29.0098Z" fill="#824424"/>
<path d="M132.834 100.487C129.298 101.387 125.638 101.698 122.002 101.405C119.882 101.075 98.7836 95.9696 100.809 95.0285C103.399 93.8286 107.567 96.7696 120 95.0285C124.357 94.1804 128.801 93.8644 133.234 94.0874C131.915 94.5815 128.525 95.2873 128.195 97.0519C127.724 99.4047 131.28 99.8517 132.834 100.487Z" fill="#824424"/>
<path d="M138.179 93.9933C134.093 93.0184 129.899 92.5678 125.699 92.6523C131.517 91.6695 137.48 91.9666 143.171 93.5228C146.115 94.2051 148.94 95.2168 151.79 95.6403C154.639 96.0638 160.338 96.3932 160.832 97.3108C161.303 98.6048 151.413 98.9812 147.904 99.4047C143.831 99.8988 136.719 102.205 136.13 101.263C136.13 100.699 142.912 99.8517 142.912 97.3578C142.912 94.8639 140.84 94.9345 138.179 93.9933Z" fill="#8D4C2A"/>
<path d="M180 108.086C177.921 107.381 175.797 106.815 173.642 106.392C167.204 105.217 160.606 105.217 154.168 106.392C151.333 107.044 148.654 108.243 146.279 109.922L135.165 109.216L121.507 109.498C123.862 109.051 126.947 108.557 128.195 108.322C134.035 107.239 139.969 106.087 145.761 104.816C154.422 103.057 163.196 101.909 172.017 101.381C174.665 101.238 177.32 101.324 179.953 101.64L180 108.086Z" fill="#824424"/>
<path d="M126.428 110.957L137.425 111.286C134.576 111.239 130.243 111.145 126.428 110.957Z" fill="#824424"/>
<path d="M100.102 101.71C103.559 101.62 106.985 101.033 110.275 99.9693C107.52 98.3459 102.598 98.3224 99.3016 97.9695C95.1572 97.546 91.3424 96.4402 87.2451 95.6167C83.1477 94.7932 78.6972 95.1226 74.4586 94.6521C70.22 94.1815 66.3581 93.0992 62.1666 92.8875C53.9955 92.4875 44.7176 91.5935 36.8055 93.711C33.3691 94.9888 29.8326 95.9803 26.2325 96.6755C22.1352 97.0754 18.0614 96.1578 13.9405 96.1578C11.7981 96.2213 9.66031 96.3941 7.53552 96.6755C6.42876 96.6755 1.78983 97.7342 4.56848 99.1459C9.01903 100.04 13.4931 101.263 18.1556 101.899C22.4256 102.186 26.7149 101.925 30.9186 101.122C40.1493 100.181 49.5685 99.4282 58.9876 99.0282C62.9205 98.972 66.8401 99.4953 70.6203 100.581C75.5079 101.487 80.4617 101.991 85.4319 102.087C90.3246 102.322 95.228 102.196 100.102 101.71ZM88.705 99.6635C79.9452 100.181 72.0802 97.8283 63.6266 96.9813C56.2796 96.2284 46.9076 95.899 40.0787 97.7342C33.5559 99.4517 24.1839 103.193 17.4492 99.7105C15.4711 97.5695 25.2435 98.6518 29.2231 97.3578C33.5372 95.6994 37.9787 94.3933 42.5041 93.4522C46.359 92.8696 50.2851 92.9492 54.1132 93.6874C57.9986 94.2756 62.0018 94.3462 65.8872 94.9815C69.7726 95.6167 73.4225 96.4637 77.2137 97.3342C80.0159 97.8283 86.9154 97.5695 88.705 99.6635Z" fill="#8C4A28"/>
<path d="M174.866 93.6875C170.628 94.2757 165.8 91.2171 161.515 90.8171C150.824 89.7819 140.84 86.888 129.866 86.888C108.273 86.888 111.405 91.9699 72.857 88.229C70.2902 87.9702 61.6717 86.6527 54.937 85.1469L69.0658 84.1352C73.5398 85.7116 83.8303 88.2996 101.656 87.4291C113.147 86.8644 134.835 85.4763 146.279 86.6527C151.954 87.2644 164.364 89.429 169.662 90.6994C175.879 92.1582 178.116 86.6527 178.728 84.5587L179.882 84.5587L179.882 89.876C178.698 91.6842 176.927 93.03 174.866 93.6875Z" fill="#824424"/>
<path d="M166.742 88.8877C161.444 88.0877 144.725 84.4409 144.725 84.4409C150.73 83.9939 156.099 85.6409 161.844 85.9938C164.798 86.3431 167.775 86.4454 170.746 86.2996C172.199 85.8345 173.591 85.1946 174.89 84.3939L176.326 84.3939C174.702 90.1582 171.452 89.617 166.742 88.8877Z" fill="#824424"/>
<path d="M29.1051 86.2763C29.8115 87.688 20.2982 87.5468 15.4944 88.2291C11.8916 88.7467 4.89784 91.2642 1.36566 88.535C0.907814 88.3463 0.479551 88.0928 0.0940725 87.7821L0.0940726 87.0057C2.5578 86.4068 5.07315 86.0444 7.60585 85.9234C10.0599 85.7588 12.5223 85.7588 14.9763 85.9234C19.3798 85.9234 28.069 84.2294 29.1051 86.2763Z" fill="#824424"/>
<path d="M34.4036 86.088C35.7929 85.194 32.4491 83.8764 30.5418 83.4529C29.3408 83.1941 27.0567 83.2647 26.6093 81.7119C27.8102 81.9001 28.9641 81.9236 30.2592 82.1824C31.5543 82.4412 36.8055 84.0882 38.3597 84.4176C39.3016 84.6058 42.6218 84.4176 42.6218 85.2646C42.6218 86.1116 38.0535 87.0762 37.1116 87.2644C33.6736 87.9467 31.6014 87.782 28.2341 88.629C24.3337 89.8637 20.3302 90.7456 16.2718 91.2641C12.8141 91.2705 9.36065 91.5063 5.93424 91.97L7.18227 91.5465L5.39264 90.9112C8.33612 90.7701 14.4115 90.276 16.4601 89.876C18.5088 89.476 31.625 87.8761 34.4036 86.088Z" fill="#824424"/>
<path d="M52.8415 104.722C58.2929 104.578 63.7143 105.572 68.7599 107.639C70.0959 108.199 71.4641 108.678 72.8572 109.075C70.5024 109.075 68.1476 109.286 65.7928 109.239L65.5338 109.239C65.2097 108.976 64.8537 108.755 64.4741 108.58C63.7127 108.305 62.9229 108.116 62.1194 108.016C57.6133 107.439 53.0584 107.344 48.5322 107.733C45.8949 107.898 43.3281 108.228 40.6908 108.228C36.9702 108.228 33.2732 107.875 29.5997 107.522C27.1504 107.432 24.698 107.471 22.2528 107.639C18.5153 107.6 14.7821 107.373 11.0676 106.957C8.03113 106.371 4.96555 105.947 1.88388 105.687L0.117791 105.687L0.117791 103.734C0.468209 103.788 0.814423 103.867 1.1539 103.969C3.54393 104.651 6.01529 105.007 8.50084 105.028C15.9655 105.028 23.3124 106.039 30.7536 106.675C38.1947 107.31 45.4004 105.051 52.8415 104.722Z" fill="#824424"/>
<path d="M180 81.4295C176.845 81.5706 173.454 81.2412 170.581 81.2412C165.871 81.2412 161.162 81.006 156.452 81.2412C152.605 81.2285 148.781 81.8322 145.126 83.0293C141.546 84.4645 137.896 84.0646 133.752 84.041L134.765 83.5234C138.132 82.0412 142.041 81.9941 145.62 80.3001C149.265 78.6846 153.219 77.8817 157.206 77.9474C161.515 77.7591 165.589 76.7239 170.063 76.9357C173.336 77.1004 176.656 77.1474 180 77.1709L180 81.4295Z" fill="#894824"/>
<path d="M133.729 84.0412C133.729 84.0412 133.705 84.0643 133.729 84.0412V84.0412Z" fill="#894824"/>
<path d="M78.8385 61.125C82.3943 60.9368 87.5042 60.1604 90.2122 62.9131C86.0206 65.2659 82.0646 64.0425 72.1274 65.9953C63.6972 67.6187 51.4288 66.3247 43.3048 68.4422C39.4141 69.8095 35.3445 70.6021 31.2247 70.7949C27.3577 70.4414 23.463 70.5282 19.6156 71.0537C15.6271 71.592 11.6074 71.8671 7.58263 71.8772C5.06007 72.0997 2.52278 72.0997 0.000213638 71.8772L0.000213782 70.2303C2.84721 70.1101 5.69927 70.2361 8.52455 70.6067C12.2451 71.1478 16.4602 69.6185 20.1337 68.8892C24.1444 68.4478 28.1848 68.3376 32.2137 68.5598C36.2875 68.3951 39.8668 66.7482 43.8228 66.207C47.7789 65.6659 52.3707 65.3836 56.6564 65.0071C58.399 64.8424 68.5952 65.5247 69.231 63.666C69.749 62.2073 59.4115 61.9485 57.928 61.8779C53.2184 61.6426 48.6266 61.8779 44.0583 61.6191C35.6046 61.1956 27.8338 61.9485 19.3801 61.6191C14.6706 61.4544 9.79614 61.0544 5.06301 60.6074C3.36757 60.4427 1.67211 60.3486 0.000214666 60.1133L0.000214859 57.9017C1.13052 58.09 2.21373 58.3252 3.17919 58.5135C6.76901 59.2138 10.4418 59.3882 14.0819 59.0311C22.7164 58.5515 31.3746 58.7167 39.9845 59.5251C44.6941 59.7604 49.4037 59.7134 54.1133 59.784C58.8228 59.8545 62.1666 61.0545 66.4759 61.078C70.7852 61.1015 74.7883 61.3838 78.8385 61.125Z" fill="#824424"/>
<path d="M37.7945 62.3956C42.3166 62.0638 46.8628 62.3407 51.311 63.219C49.3915 63.8645 47.3788 64.1904 45.3534 64.1837C41.0912 64.6542 37.2529 66.1835 33.0143 66.6776C28.7757 67.1717 10.6203 67.7363 8.31259 67.9951C5.55828 68.3667 2.7785 68.5162 0.000183107 68.4422L0.000183741 61.1956C4.07397 61.9956 20.2043 63.7837 24.1603 63.9954C28.7286 64.1601 33.085 62.3956 37.7945 62.3956Z" fill="#914F2A"/>
<path d="M1.88405 65.1483C4.02691 65.1483 7.81811 65.0071 8.94841 64.913C12.5041 64.5836 20.1101 63.2425 21.5465 63.1719C22.9829 63.1014 30.2828 61.7838 34.3801 63.8307C29.2702 62.7249 17.4963 65.0071 15.895 65.1483C14.2938 65.2894 4.82753 66.0894 1.88405 65.1483Z" fill="#9A5932"/>
<path fill-rule="evenodd" clip-rule="evenodd" d="M54.5843 65.9247C48.9541 65.5788 43.3484 64.9111 37.7946 63.9248C40.1494 63.5248 49.3331 64.4895 53.5952 64.7012C57.2923 64.8659 62.567 65.1247 66.2405 65.2188C68.0066 65.5482 75.0003 65.9482 76.7664 66.2776C75.8715 66.2776 69.8197 66.2776 69.1369 66.2776C67.6062 66.2541 57.7161 66.0894 54.5843 65.9247Z" fill="#9A5932"/>
<path d="M41.6091 64.8424C38.5457 64.3689 35.454 64.1017 32.3548 64.0425C21.2402 64.0425 10.8555 68.4657 -3.03995e-05 64.9601C5.57751 65.842 11.2592 65.842 16.8367 64.9601C18.956 64.6542 20.8399 64.2778 22.653 63.9719L24.1601 63.9719C26.4719 64.0064 28.7797 63.7695 31.0361 63.2661L31.978 63.2661L43.281 64.466C42.7159 64.5836 42.1507 64.7013 41.6091 64.8424Z" fill="#703D25"/>
<path d="M73.116 59.3369C64.4193 59.5693 55.7255 58.7797 47.2133 56.9842C44.5021 56.6282 41.8297 56.0217 39.2306 55.1725C47.7078 55.3137 55.408 57.5253 63.5791 58.2311C67.6814 58.7098 71.8137 58.8828 75.9417 58.7487C79.9034 58.8026 83.8569 58.376 87.7157 57.4782C88.7753 57.1253 90.7534 56.9371 90.9182 55.9019C91.083 54.8667 92.2133 55.1255 93.8146 54.9608L96.2871 55.1961C94.992 57.9959 88.2102 58.7487 85.4315 59.0075C81.2165 59.5016 77.3075 59.0311 73.116 59.3369Z" fill="#824424"/>
<path d="M137.567 46.9614C133.446 45.2203 106.13 38.2796 96.2401 37.5503C99.5369 36.468 113.1 39.903 116.633 40.2324C121.036 40.7736 124.945 42.5852 129.231 43.3381C133.516 44.091 137.472 44.9144 141.405 45.8085C145.065 46.3155 148.664 47.1985 152.143 48.4436C148.893 50.5846 141.523 49.8788 137.496 50.467C131.115 51.4316 124.686 52.3257 118.352 53.4079C113.642 54.2314 109.121 54.7961 104.553 55.2666C100.62 55.6666 96.5463 55.0078 92.4489 55.0078C97.8885 53.1021 108.721 50.7493 114.49 49.3612C117.457 48.6553 144.537 50.3729 137.567 46.9614Z" fill="#824424"/>
<path d="M172.818 50.8904C168.387 51.2206 163.983 51.8336 159.631 52.7256C155.769 53.6432 151.672 53.502 147.857 54.5137C145.691 55.0548 137.661 57.7841 136.271 55.5489C139.592 53.4079 148.257 52.5609 152.237 51.9727C157.101 51.4217 161.903 50.4134 166.578 48.9612C170.414 47.789 174.359 47.0009 178.352 46.6084C178.752 46.6084 179.293 46.4202 179.976 46.279L179.976 49.8082L175.808 48.9847L172.818 50.8904Z" fill="#824424"/>
<path d="M114.49 49.3613C120.024 48.9378 131.845 47.0086 134.035 47.0086C136.225 47.0086 147.645 45.1028 154.003 47.9497C146.068 46.3969 127.771 49.5496 125.275 49.7613C122.779 49.9731 108.085 51.0789 103.611 49.7613C106.931 49.8554 112.818 49.5025 114.49 49.3613Z" fill="#9A5932"/>
<path d="M173.736 50.3024C166.183 49.1732 158.573 48.4663 150.942 48.1849C133.399 48.1849 117.033 54.4904 99.89 49.1966C108.826 50.5612 117.917 50.5612 126.852 49.1966C135.471 48.1379 141.664 46.3968 150.4 47.1497C158.571 47.8791 166.884 48.7261 175.125 49.5025L173.736 50.3024Z" fill="#703D25"/>
<path d="M94.3093 19.9515C100.856 19.9515 106.931 22.5866 112.983 24.7982C116.232 25.9746 120.283 24.9394 123.65 25.857C124.757 26.1393 126.593 26.5158 128.218 27.0569L111.9 25.6452L107.991 26.0923L103.87 25.2688C99.3486 24.3983 94.7803 23.1278 90.212 22.4925C87.2716 22.4251 84.3312 22.6299 81.4286 23.1042C78.2497 23.2454 75.0471 22.9395 71.8917 23.1042C69.042 22.8791 66.175 23.0374 63.3674 23.5748C61.1644 24.7362 59.0263 26.0165 56.9624 27.4098C54.4191 28.3998 51.6335 28.5886 48.9796 27.9509C46.8368 27.7627 42.1978 28.6097 40.9734 27.4098L41.774 27.6921C46.551 27.0239 51.273 26.0095 55.9027 24.6571C60.2826 23.1278 62.9671 20.5162 67.6767 19.9515C76.2716 18.7516 85.6201 19.9515 94.3093 19.9515Z" fill="#8C4A28"/>
<path d="M132.386 10.5169C124.945 11.1757 117.786 10.3993 111.334 14.2813C109.536 15.2282 107.557 15.7848 105.528 15.9145C103.499 16.0443 101.465 15.7443 99.5604 15.0342C97.2056 14.399 96.4521 12.9638 94.4976 11.905C92.3417 11.1415 90.0919 10.6745 87.81 10.5169C83.0223 9.55192 78.1888 8.82948 73.328 8.35234L71.9152 6.16426C75.7727 5.90512 79.6432 5.90512 83.5007 6.16426C88.4458 6.65835 92.9199 9.19935 97.6294 9.6699C102.634 9.88436 107.647 9.4973 112.559 8.51704C119.411 7.5524 126.546 8.65821 133.399 7.7171C136.16 7.25228 138.85 6.43794 141.405 5.29375L149.388 5.29375C143.989 7.81182 138.268 9.56962 132.386 10.5169Z" fill="#8F4B28"/>
<path d="M70.7616 7.2701L71.209 8.02299C66.7113 7.62301 62.8966 10.0934 58.5167 10.0699C54.1368 10.0464 49.0975 10.7757 44.7176 9.0582C37.8416 6.28193 24.3252 10.3993 18.2733 9.83462C16.3424 9.6464 10.0316 9.31701 4.45074 8.84645C5.57757 7.82395 6.85656 6.9826 8.24196 6.35251L8.99549 6.35251C12.3864 6.65837 15.8008 7.43479 19.1917 7.92887C24.4448 7.96249 29.6889 7.48975 34.8511 6.51721C37.0585 6.16608 39.3077 6.16608 41.5151 6.51721C43.7051 6.72896 45.7066 7.12893 47.8966 7.43479C50.8165 7.83476 51.523 6.68191 54.019 6.02313C56.3747 5.76328 58.756 5.85845 61.0834 6.30546C63.2734 6.4231 65.3456 6.09371 67.4178 6.09371L69.0897 6.09371L70.7616 7.2701Z" fill="#8F4B28"/>
<path d="M135.753 5.29379C132.904 6.70546 128.03 5.92904 125.463 5.92904C120.753 5.92904 116.609 6.77604 112.135 7.01132C107.661 7.24659 103.352 9.3641 99.0658 8.63474C95.8636 7.98093 92.7764 6.85497 89.9057 5.29379L135.753 5.29379Z" fill="#824424"/>
<path opacity="0.75" d="M43.5872 83.8999C25.2434 83.7352 7.72375 83.2411 4.20398e-05 83.0058L4.21015e-05 82.3C6.19313 82.3 18.8384 82.3 33.438 82.4647L43.5872 83.8999Z" fill="#783F25"/>
<path opacity="0.75" d="M180 84.6293L131.374 84.9116C131.374 84.9116 98.4066 84.2293 71.0675 84.0176L87.3862 82.8412L113.43 83.0294C128.524 83.0294 159.819 83.5705 175.597 83.947L174.184 84.3705L180 84.6058L180 84.6293Z" fill="#783F25"/>
<path d="M174.184 84.3705L174.513 84.3705C157.535 83.8999 116.138 82.7235 85.8083 82.1353L71.2087 80.0884L59.2463 81.7824L58.2573 81.7824C36.0281 81.7824 9.72516 82.3236 -0.000121883 82.2294L-0.000121758 80.7943C25.7377 80.7943 105.73 79.5944 113.218 79.6649C129.866 79.6649 166.507 82.0177 179.976 82.653L174.184 84.3705Z" fill="#9F5B36"/>
<path d="M174.184 84.3704L177.551 84.5116L86.0675 82.9588L89.6939 82.6764L83.6656 81.8294L176.797 83.594L174.184 84.3704Z" fill="#703D25"/>
<path d="M54.89 82.3942L31.036 82.1354L34.474 82.606L-0.000133502 82.4648L-0.000133444 81.806L59.2463 81.7825L54.89 82.3942Z" fill="#703D25"/>
<path d="M180 28.9628L144.537 28.4452L131.232 27.3629L111.876 25.6924C136.272 25.6924 157.206 25.6924 165.895 25.6924C169.898 25.6924 174.702 26.6335 180.024 26.9159L180 28.9628Z" fill="#9F5B36"/>
<path d="M9.93189e-05 26.6806C17.5904 26.0218 69.8431 25.7395 111.853 25.6454L95.5103 27.8099L85.1963 27.8099C52.7944 27.8099 14.5527 28.3275 9.91831e-05 28.2334L9.93189e-05 26.6806Z" fill="#9F5B36"/>
<path d="M0.000122157 27.7864L91.9781 28.2805L103.046 28.7745L0.000122099 28.4451L0.000122157 27.7864Z" fill="#703D25"/>
<path d="M180 29.5742L147.245 29.1978L150.424 28.8919L180 28.5861L180 29.5742Z" fill="#703D25"/>
<path opacity="0.75" d="M180 30.7977C170.369 30.6566 156.146 30.4919 140.604 30.3507L142.7 29.6684L149.765 29.0096L166.248 29.0096L180.047 29.0096L180 30.7977Z" fill="#783F25"/>
<path opacity="0.75" d="M-9.12586e-05 28.2804C16.3657 28.2804 61.8367 28.5157 101.703 28.7274L122.001 29.6215L123.297 30.1391C110.91 30.1391 98.4301 29.9744 87.4097 29.9509C87.4097 31.3155 86.7268 31.6449 84.7958 31.6449C82.8649 31.6449 82.0407 31.1037 82.912 29.9509L80.8162 29.9509C48.485 29.9509 13.8932 29.2921 -9.13224e-05 29.0098L-9.12586e-05 28.2804Z" fill="#783F25"/>
<path d="M87.1038 31.1037C86.4061 31.5532 85.5731 31.7446 84.749 31.6448C82.818 31.6448 81.9939 31.1037 82.8651 29.9508L79.0033 29.9508C79.9688 29.9508 80.7223 29.8097 81.7113 29.7626C82.7003 29.7156 83.8306 29.2921 83.7835 30.1626C83.7835 30.4214 83.2419 30.6567 83.4067 30.8449C84.0896 31.5507 86.1618 31.3625 87.1038 31.1037Z" fill="#703D25"/>
<path d="M180 111.074L159.137 110.792L135.165 109.263L104.129 109.898C82.3705 109.569 63.0848 109.357 51.4521 109.38C34.4977 109.38 15.9419 109.522 1.25468e-07 109.639L2.38596e-07 108.345C45.0706 108.345 114.301 107.545 132.151 107.616C143.76 107.569 161.962 108.581 180 109.004L180 111.074Z" fill="#9F5B36"/>
<path d="M180 111.474L151.413 111.121L159.301 110.721L150.071 110.11L180 110.51L180 111.474Z" fill="#703D25"/>
<path d="M112.371 109.639L99.8902 109.898C99.8902 110.063 109.71 110.439 120.141 110.769L81.617 110.322L6.87263e-05 110.063L6.87941e-05 109.286L84.2308 109.286L112.371 109.639Z" fill="#703D25"/>
<path opacity="0.75" d="M180 112.321L158.807 112.321C158.807 112.321 95.7457 111.427 53.7127 111.357C53.7127 112.721 53.0298 113.051 51.0989 113.051C49.168 113.051 48.3438 112.51 49.2151 111.333L47.1429 111.333C31.0597 111.333 14.4349 111.192 0.0471041 111.004L0.0471042 109.804L110.063 110.416C123.297 110.792 144.725 111.474 144.725 111.474L159.231 110.792L180 110.792L180 112.321Z" fill="#783F25"/>
<path d="M53.3594 112.604C52.6617 113.053 51.8287 113.245 51.0046 113.145C49.0737 113.145 48.2495 112.604 49.1208 111.427L45.2354 111.427L47.9669 111.263C48.6262 111.263 50.0862 110.792 50.0391 111.663C50.0391 111.898 49.4975 112.157 49.6624 112.345C50.3452 113.145 52.4175 112.863 53.3594 112.604Z" fill="#703D25"/>
<path d="M101.515 43.0795C100.691 43.997 95.463 43.8559 92.4489 45.2205C89.7519 46.2586 87.1109 47.4365 84.5368 48.7496C82.3704 51.1024 75.8476 53.6199 70.2903 54.2551L70.2903 53.4552C75.6122 52.8435 82.0643 50.3966 84.0423 48.2085C86.4741 46.4308 89.1356 44.9903 91.9544 43.9265C93.9089 43.2206 96.923 42.5148 96.8759 42.4207C96.2166 41.1267 89.9764 40.562 86.9858 40.3032C85.5729 40.162 62.9905 36.8681 58.1632 35.927C45.0235 33.3154 31.4128 30.6333 17.5431 35.1036C11.7872 36.4631 5.91092 37.2511 -7.48253e-05 37.4563L-7.47616e-05 36.727C5.83032 36.4877 11.6252 35.7 17.3076 34.3742C22.5738 32.7396 28.0652 31.9456 33.5792 32.0214C41.916 32.2834 50.2062 33.371 58.328 35.2683C63.0376 36.2094 85.7849 39.5032 87.0564 39.6209C92.1428 39.9738 103.446 40.9384 101.515 43.0795Z" fill="#884826"/>
<path d="M180 55.8079C163.163 55.6667 128.713 54.9373 99.1601 54.6785C79.7331 54.5138 38.8069 54.6785 0.682892 55.1255L8.87755 53.855L5.58086 52.7022C10.2904 52.3493 14.7881 51.8552 18.4851 51.8787C41.0675 51.8787 145.997 53.9962 180 54.3491L180 55.8079Z" fill="#9F5B36"/>
<path d="M180 56.0431L69.0188 55.4784L3.08524e-08 55.6902L7.19897e-08 55.2196L3.50864 54.6785L66.3815 54.3961L180 55.3608L180 56.0431Z" fill="#703D25"/>
<path opacity="0.75" d="M180 56.6784C164.105 56.8666 132.904 57.1489 103.516 56.8901C102.881 56.8901 22.1115 56.8901 -0.0941772 56.8901L-0.0941771 55.2432L18.0141 55.2432C40.5965 55.2432 145.832 55.6432 179.859 55.8549L180 56.6784Z" fill="#783F25"/>
<path d="M34.7096 113.145C42.5039 113.662 48.5322 117.85 55.5024 115.992C60.254 114.043 65.4313 113.362 70.5259 114.015C78.9325 114.98 89.7645 115.498 89.5997 119.521C89.4349 123.544 76.978 121.05 72.1978 121.215C65.8163 121.427 49.2386 128.72 44.1523 130.273C38.9784 131.829 33.4952 132.055 28.2104 130.932C19.2151 129.52 19.6154 132.508 11.4207 132.461C8.33597 132.461 5.88699 131.779 2.9906 131.755L2.3548 130.908C5.16337 130.858 7.97209 131 10.7614 131.332C16.7661 131.967 18.5793 128.438 28.0455 129.05C33.2833 129.925 38.6451 129.717 43.7991 128.438C48.8854 127.073 61.1539 121.874 72.292 120.062C74.8823 119.639 85.5024 120.909 85.9262 119.333C86.7033 116.439 76.6955 115.733 71.4443 115.239C65.627 114.49 59.7147 115.251 54.2779 117.45C49.0032 118.909 38.3831 113.38 31.7426 114.086C25.1021 114.792 20.8163 116.439 16.1068 116.439C11.7504 116.439 7.70017 114.98 4.6625 115.098C4.21509 115.098 2.30771 115.309 -0.0470795 115.545L-0.0470794 114.18L3.46155 114.039C7.40808 114.213 11.3402 114.629 15.2355 115.286C18.5086 115.709 26.8211 112.533 34.7096 113.145Z" fill="#824424"/>
<path d="M73.1162 130.767C77.0487 131.614 89.5997 127.262 95.416 129.097L95.416 131.967C93.2294 131.301 90.935 131.061 88.6578 131.261C85.5024 131.708 82.5824 132.555 79.4506 132.979C76.3187 133.402 73.2575 132.438 70.2198 132.485C67.2213 132.901 64.3334 133.901 61.719 135.426C60.376 136.165 58.9322 136.704 57.4333 137.026L54.0659 137.026C60.9655 133.779 66.6641 129.379 73.1162 130.767Z" fill="#8D4C29"/>
<path style="mix-blend-mode:multiply" d="M162.998 46.4202C162.998 29.1038 156.405 29.9508 141.64 31.2919C138.226 31.5742 127.37 32.7742 125.746 29.2215C124.78 27.104 130.22 18.7987 130.644 16.1165C132.998 1.2705 119.694 -2.70568 107.896 1.67048C99.8901 4.63497 93.4615 10.3052 85.6672 13.8814C76.248 18.2811 65.934 20.4456 56.2088 24.2101C40.8084 30.1861 29.5761 37.2679 22.2763 52.608C17.5667 62.7014 1.67188 79.5708 6.56983 91.8758C8.38303 96.4402 15.989 99.4753 19.6624 101.993C25.9026 106.228 32.496 109.451 38.9952 113.333C57.0565 124.132 101.515 153.895 117.716 125.568C120.636 120.462 122.049 113.145 128.571 112.486C133.87 111.874 139.733 116.251 145.785 115.498C158.807 113.592 167.308 98.5106 167.826 86.2056C168.32 72.7478 162.998 60.0193 162.998 46.4202ZM143.524 84.5116C141.311 99.1459 127.559 85.8998 117.622 89.2172C112.512 90.9582 105.848 95.0991 103.823 100.087C101.633 105.475 104.67 113.71 98.854 117.286C88.6577 123.568 80.8163 113.004 74.0581 107.075C65.4631 99.5223 55.3846 93.8051 45.6358 87.8761C41.6364 85.6039 38.269 82.3688 35.8398 78.465C32.1899 72.0184 33.8854 64.7954 44.0816 58.6076C50.0708 55.4765 55.6144 51.5598 60.5651 46.9614C65.2747 41.997 69.2543 35.8092 75.3767 32.3506C79.8765 29.9956 84.5254 27.9365 89.2935 26.1864C95.8869 23.5042 97.653 22.4925 99.6075 29.8097C102.669 41.3382 94.8979 53.8785 112.724 53.1727C120.73 52.8668 136.719 44.1851 142.512 51.6434C148.305 59.1017 144.796 75.9946 143.524 84.5116Z" fill="url(#paint0_radial)"/>
<path opacity="0.45" d="M51.0285 87.0997C46.1776 84.4881 37.1823 80.5825 37.0175 73.9712C36.7585 64.2072 55.1494 54.7256 61.0128 48.3495C68.5481 40.1854 74.647 33.2918 84.7255 28.2333C90.2592 25.4571 101.704 20.7986 100.597 31.5037C99.961 37.668 94.1446 49.6671 103.54 52.8669C97.8417 50.9141 94.4979 47.0085 94.4743 41.103C94.4743 37.3856 96.9468 30.3979 91.0599 29.9979C85.9971 29.645 78.2027 36.6798 74.1525 39.6208C66.1987 45.2143 58.7667 51.5139 51.9468 58.4429C48.7443 61.8074 41.2797 69.0304 41.3503 73.9712C41.5151 83.3823 58.0457 87.4762 64.6392 90.8642C72.457 94.8874 90.6125 122.556 99.019 108.981C102.645 103.146 98.7129 93.8051 104.176 89.0996C111.97 82.4412 124.333 87.1703 133.258 86.7468C138.391 86.441 142.912 84.7705 144.231 79.2885C145.55 73.8066 145.267 60.6781 141.17 56.349C139.686 54.7491 127.041 51.7846 126.264 54.3256C127.488 49.7612 137.214 49.8553 140.393 52.161C148.47 57.7606 149.105 76.6064 144.773 84.6293C140.228 93.0052 130.644 89.0525 122.614 89.4525C116.327 89.7584 105.871 88.3702 104.082 96.5108C102.693 102.84 105 112.533 97.6768 115.756C87.2451 120.203 80.3456 111.404 75.4712 104.04C69.7255 95.2403 59.8825 91.8523 51.0285 87.0997Z" fill="#DD8645"/>
<path opacity="0.45" d="M67.5355 96.3698C61.6015 92.3465 55.0552 88.888 49.0269 84.9824C42.3393 80.6533 35.793 77.7829 40.1258 68.9835C41.6248 65.9881 43.6507 63.2864 46.107 61.0076C51.2639 56.6314 50.6282 59.4548 48.0143 63.5957C43.3048 71.1951 41.5387 77.0065 51.0285 80.9826C57.471 83.5686 63.6725 86.7179 69.5607 90.3937C76.4366 94.7934 87.2451 122.768 97.9594 109.898C99.5135 108.016 100.314 105.193 101.586 103.428C105.212 107.075 100.338 115.192 96.0991 116.51C81.782 121.215 76.2012 102.228 67.5355 96.3698Z" fill="#E8984F"/>
<path opacity="0.45" d="M124.027 86.1586C137.261 88.0173 143.784 82.3 142.512 68.9833C142.273 65.7446 141.648 62.5458 140.652 59.4546C139.616 56.8195 136.531 54.749 137.708 52.0669C149.482 49.1965 151.837 87.3585 134.176 90.1583C124.098 91.7346 114.584 86.5585 105.189 90.9347C104.247 83.2882 116.303 85.1704 120.636 85.688L124.027 86.1586Z" fill="#E8984F"/>
<path opacity="0.45" d="M80.4397 37.3619C76.8369 39.9264 73.3754 42.7733 69.7255 45.2202C69.4664 45.3849 59.4821 50.0904 60.6124 48.8434C63.9526 45.0861 67.5567 41.5716 71.3974 38.3265C75.3063 34.6091 79.0033 30.5624 84.1603 28.586C86.8919 27.5273 93.4382 24.1864 96.4759 26.0686C99.5135 27.9508 98.8307 35.0797 97.4884 37.8325C93.7914 37.6678 94.9217 32.1387 90.0708 31.927C86.939 31.8329 82.8887 35.5032 80.4397 37.3619Z" fill="#E8984F"/>
</g>
<defs>
<radialGradient id="paint0_radial" cx="0" cy="0" r="1" gradientUnits="userSpaceOnUse" gradientTransform="translate(86.7504 68.7245) scale(75.2119 75.1476)">
<stop stop-color="white"/>
<stop offset="1" stop-color="#C6BDA6"/>
</radialGradient>
</defs>
</svg>
